<?xml version="1.0" encoding="UTF-8"?>
<kml xmlns="http://earth.google.com/kml/2.0">
<Folder>
<Style id="ThMapStyle"> <PolyStyle> <fill>1</fill> <outline>0</outline> </PolyStyle> </Style>
<Style id="ThEntranceIcon"> <IconStyle> <Icon> <href>https://therion.speleo.sk/downloads/KmlIconEntrance.png</href> </Icon> <hotSpot x="0.5" y="0" xunits="fraction" yunits="fraction" /> </IconStyle> </Style>
<Icon> <href>https://therion.speleo.sk/downloads/KmlIconMap.png</href> </Icon>
<name><![CDATA[Eymards]]></name>
<description><![CDATA[Longueur 283 m<br>Profondeur 33 m<br><it>Plan<ss> - Saint-Pierre de Chartreuse, 38, France]]></description>
<Placemark>
<styleUrl>#ThEntranceIcon</styleUrl><name><![CDATA[Grotte des Eymards]]></name>
<Point> <coordinates>5.56952587937972,45.11970015288981,1151.65999364014715</coordinates> </Point>
</Placemark>
<Placemark>
<styleUrl>#ThMapStyle</styleUrl>
<name><![CDATA[Eymards]]></name>
<Style> <PolyStyle> <color>bfccffff</color> </PolyStyle> </Style>
<MultiGeometry>
<Polygon>
<outerBoundaryIs>
<LinearRing>
<coordinates>
	5.56894523077840,45.12103726887140,0.00000000000000 	5.56894378370641,45.12103808315249,0.00000000000000 	5.56894002680839,45.12104019507282,0.00000000000000 	5.56893667180115,45.12104207880222,0.00000000000000 	5.56893293944676,45.12104417156794,0.00000000000000 	5.56892908944219,45.12104632629318,0.00000000000000 	5.56892538148449,45.12104839590114,0.00000000000000 	5.56892207527078,45.12105023331500,0.00000000000000 	5.56891770686407,45.12105262325356,0.00000000000000 	5.56891469135583,45.12105477906135,0.00000000000000 	5.56891188733564,45.12105731045170,0.00000000000000 	5.56890902001806,45.12106027190336,0.00000000000000 	5.56890645084996,45.12106334497358,0.00000000000000 	5.56890454127834,45.12106621121960,0.00000000000000 	5.56890364594522,45.12106916075943,0.00000000000000 	5.56890379868209,45.12107097178372,0.00000000000000 	5.56890352913070,45.12107392437449,0.00000000000000 	5.56890196374095,45.12107693081030,0.00000000000000 	5.56889848343830,45.12107898749472,0.00000000000000 	5.56889449242619,45.12107979588889,0.00000000000000 	5.56889012899713,45.12108101241638,0.00000000000000 	5.56888842662751,45.12108394055088,0.00000000000000 	5.56888736510733,45.12108718440962,0.00000000000000 	5.56888660264902,45.12109038221391,0.00000000000000 	5.56888607698143,45.12109351519690,0.00000000000000 	5.56888613617667,45.12109589315400,0.00000000000000 	5.56888628576812,45.12109943150869,0.00000000000000 	5.56888658937435,45.12110400978286,0.00000000000000 	5.56888710349176,45.12110918010183,0.00000000000000 	5.56888788461675,45.12111449459086,0.00000000000000 	5.56888898924572,45.12111950537530,0.00000000000000 	5.56889047387508,45.12112376458037,0.00000000000000 	5.56889239500115,45.12112682433138,0.00000000000000 	5.56889621870706,45.12112818525554,0.00000000000000 	5.56890085386974,45.12112646518167,0.00000000000000 	5.56890336831793,45.12112406138203,0.00000000000000 	5.56890445295170,45.12112112154169,0.00000000000000 	5.56890479867109,45.12111779334570,0.00000000000000 	5.56890509637603,45.12111422447902,0.00000000000000 	5.56890525028197,45.12111329310851,0.00000000000000 	5.56890600216846,45.12111029369103,0.00000000000000 	5.56890707246831,45.12110711698608,0.00000000000000 	5.56890831095913,45.12110393099985,0.00000000000000 	5.56890956741858,45.12110090373850,0.00000000000000 	5.56891069162439,45.12109820320826,0.00000000000000 	5.56891172519417,45.12109540113078,0.00000000000000 	5.56891232189550,45.12109244709881,0.00000000000000 	5.56891283284781,45.12108932961993,0.00000000000000 	5.56891344230222,45.12108558856974,0.00000000000000 	5.56891415709955,45.12108147674365,0.00000000000000 	5.56891498408063,45.12107724693712,0.00000000000000 	5.56891593008628,45.12107315194559,0.00000000000000 	5.56891700195737,45.12106944456450,0.00000000000000 	5.56891820653476,45.12106637758932,0.00000000000000 	5.56892027718964,45.12106353087760,0.00000000000000 	5.56892272860276,45.12106221849488,0.00000000000000 	5.56892681240429,45.12106045359780,0.00000000000000 	5.56893209656569,45.12105837758048,0.00000000000000 	5.56893814905850,45.12105613183707,0.00000000000000 	5.56894453785436,45.12105385776164,0.00000000000000 	5.56895083092504,45.12105169674857,0.00000000000000 	5.56895659624245,45.12104979019216,0.00000000000000 	5.56896140177859,45.12104827948689,0.00000000000000 	5.56896640539534,45.12104701120783,0.00000000000000 	5.56896640539534,45.12104701120783,0.00000000000000 	5.56894523077840,45.12103726887140,0.00000000000000 </coordinates>
</LinearRing>
</outerBoundaryIs>
</Polygon>
<Polygon>
<outerBoundaryIs>
<LinearRing>
<coordinates>
	5.56896578930314,45.12101304749518,0.00000000000000 	5.56898597793427,45.12101863407111,0.00000000000000 	5.56896578930314,45.12101304749518,0.00000000000000 	5.56896578930314,45.12101304749518,0.00000000000000 	5.56896303180892,45.12101391361888,0.00000000000000 	5.56895873684773,45.12101558095752,0.00000000000000 	5.56895541243725,45.12101698073618,0.00000000000000 	5.56895199427611,45.12101850126076,0.00000000000000 	5.56894871819157,45.12102004839132,0.00000000000000 	5.56894458633066,45.12102221304277,0.00000000000000 	5.56894175116632,45.12102462017855,0.00000000000000 	5.56894364451311,45.12102711579422,0.00000000000000 	5.56894576480662,45.12102975867469,0.00000000000000 	5.56894635959590,45.12103151993564,0.00000000000000 	5.56894660959431,45.12103457546556,0.00000000000000 	5.56894523093126,45.12103726887420,0.00000000000000 	5.56894523093126,45.12103726887420,0.00000000000000 	5.56896640554819,45.12104701121062,0.00000000000000 	5.56896640554819,45.12104701121062,0.00000000000000 	5.56896874835119,45.12104509020293,0.00000000000000 	5.56897201011021,45.12104212936944,0.00000000000000 	5.56897454601088,45.12103975052026,0.00000000000000 	5.56897715007088,45.12103724612107,0.00000000000000 	5.56897963289911,45.12103478624464,0.00000000000000 	5.56898271553894,45.12103155194432,0.00000000000000 	5.56898463376468,45.12102898271932,0.00000000000000 	5.56898442357195,45.12102839522171,0.00000000000000 	5.56898098439726,45.12102666841799,0.00000000000000 	5.56897686663282,45.12102532450687,0.00000000000000 	5.56897334825700,45.12102370287548,0.00000000000000 	5.56897479605889,45.12102245922237,0.00000000000000 	5.56897868348680,45.12102098215415,0.00000000000000 	5.56898223967969,45.12101985189881,0.00000000000000 	5.56898597793427,45.12101863407111,0.00000000000000 </coordinates>
</LinearRing>
</outerBoundaryIs>
</Polygon>
<Polygon>
<outerBoundaryIs>
<LinearRing>
<coordinates>
	5.56903251889575,45.12095244769330,0.00000000000000 	5.56901543195710,45.12095854828427,0.00000000000000 	5.56901543195710,45.12095854828427,0.00000000000000 	5.56901779968394,45.12096003718894,0.00000000000000 	5.56901986941175,45.12096264960559,0.00000000000000 	5.56901945329660,45.12096490921785,0.00000000000000 	5.56901898610223,45.12096773133882,0.00000000000000 	5.56901844547582,45.12097065712607,0.00000000000000 	5.56901745025504,45.12097381095982,0.00000000000000 	5.56901521149207,45.12097583392617,0.00000000000000 	5.56901205274693,45.12097867748575,0.00000000000000 	5.56900796513815,45.12098233703655,0.00000000000000 	5.56900329505913,45.12098648691479,0.00000000000000 	5.56900084984125,45.12098864395679,0.00000000000000 	5.56899838890341,45.12099080145676,0.00000000000000 	5.56899359306478,45.12099495499879,0.00000000000000 	5.56898925393722,45.12099862187726,0.00000000000000 	5.56898571791489,45.12100147642865,0.00000000000000 	5.56898267744116,45.12100352275345,0.00000000000000 	5.56898000576329,45.12100477049628,0.00000000000000 	5.56897615901624,45.12100700743105,0.00000000000000 	5.56897299734476,45.12100893690338,0.00000000000000 	5.56896907233867,45.12101131538031,0.00000000000000 	5.56896578908608,45.12101304749123,0.00000000000000 	5.56896578908608,45.12101304749123,0.00000000000000 	5.56898597771722,45.12101863406718,0.00000000000000 	5.56898597771722,45.12101863406718,0.00000000000000 	5.56898909233543,45.12101789377395,0.00000000000000 	5.56899274543364,45.12101654784706,0.00000000000000 	5.56899676310169,45.12101473855252,0.00000000000000 	5.56900097142945,45.12101260815643,0.00000000000000 	5.56900519650686,45.12101029892483,0.00000000000000 	5.56900926442392,45.12100795312382,0.00000000000000 	5.56901300127070,45.12100571301955,0.00000000000000 	5.56901623313736,45.12100372087816,0.00000000000000 	5.56902048629105,45.12100104954870,0.00000000000000 	5.56902238886315,45.12099986113103,0.00000000000000 	5.56902545776694,45.12099793278776,0.00000000000000 	5.56902938222005,45.12099545263194,0.00000000000000 	5.56903385144012,45.12099260877657,0.00000000000000 	5.56903855464492,45.12098958933471,0.00000000000000 	5.56904318105232,45.12098658241945,0.00000000000000 	5.56904741988034,45.12098377614390,0.00000000000000 	5.56905096034708,45.12098135862134,0.00000000000000 	5.56905470306958,45.12097844228795,0.00000000000000 	5.56905454738251,45.12097543989300,0.00000000000000 	5.56905330139388,45.12097273750251,0.00000000000000 	5.56905172808377,45.12097007208737,0.00000000000000 	5.56904985395853,45.12096726381290,0.00000000000000 	5.56904863601017,45.12096540582157,0.00000000000000 	5.56904670423178,45.12096247098820,0.00000000000000 	5.56904500371315,45.12096000257741,0.00000000000000 	5.56904268979658,45.12095694083779,0.00000000000000 	5.56904022930042,45.12095450961173,0.00000000000000 	5.56903635782152,45.12095307665425,0.00000000000000 	5.56903251889575,45.12095244769330,0.00000000000000 </coordinates>
</LinearRing>
</outerBoundaryIs>
</Polygon>
<Polygon>
<outerBoundaryIs>
<LinearRing>
<coordinates>
	5.56894006554784,45.12082605326835,0.00000000000000 	5.56894134991789,45.12082926291666,0.00000000000000 	5.56894255834786,45.12083245787368,0.00000000000000 	5.56894379135655,45.12083598660513,0.00000000000000 	5.56894478425538,45.12083930437541,0.00000000000000 	5.56894527712969,45.12084245838906,0.00000000000000 	5.56894518660182,45.12084288566126,0.00000000000000 	5.56894419508505,45.12084582791660,0.00000000000000 	5.56894374717604,45.12084854710523,0.00000000000000 	5.56894385057820,45.12084949674541,0.00000000000000 	5.56894528151324,45.12085382372062,0.00000000000000 	5.56894667889602,45.12085805116804,0.00000000000000 	5.56894834122703,45.12086310305492,0.00000000000000 	5.56894922729609,45.12086580889739,0.00000000000000 	5.56895012625977,45.12086856573087,0.00000000000000 	5.56895102033722,45.12087132184903,0.00000000000000 	5.56895189174762,45.12087402554560,0.00000000000000 	5.56895349544386,45.12087906884869,0.00000000000000 	5.56895479510167,45.12088328198988,0.00000000000000 	5.56895564847418,45.12088625131883,0.00000000000000 	5.56895591331451,45.12088756318523,0.00000000000000 	5.56895671518007,45.12089068056866,0.00000000000000 	5.56895785597800,45.12089404860492,0.00000000000000 	5.56895918779902,45.12089785254060,0.00000000000000 	5.56896046213188,45.12090153003506,0.00000000000000 	5.56896143046519,45.12090451874766,0.00000000000000 	5.56896184428752,45.12090625633782,0.00000000000000 	5.56896270750954,45.12090917943445,0.00000000000000 	5.56896402889782,45.12091236423984,0.00000000000000 	5.56896516688096,45.12091505057931,0.00000000000000 	5.56896548486762,45.12091609781132,0.00000000000000 	5.56896583185094,45.12091885758896,0.00000000000000 	5.56896641987390,45.12092163821094,0.00000000000000 	5.56896724913755,45.12092456821595,0.00000000000000 	5.56896857351652,45.12092755601983,0.00000000000000 	5.56897082093126,45.12092981204778,0.00000000000000 	5.56897195726037,45.12093020152951,0.00000000000000 	5.56897493163923,45.12093221202750,0.00000000000000 	5.56897821659805,45.12093439252769,0.00000000000000 	5.56898161604294,45.12093654225205,0.00000000000000 	5.56898481567459,45.12093826826635,0.00000000000000 	5.56898519147297,45.12093839117729,0.00000000000000 	5.56898848289104,45.12094018719824,0.00000000000000 	5.56899160940755,45.12094224896766,0.00000000000000 	5.56899510965743,45.12094466412530,0.00000000000000 	5.56899858271851,45.12094711789252,0.00000000000000 	5.56900162766845,45.12094929549082,0.00000000000000 	5.56900384358479,45.12095088214168,0.00000000000000 	5.56900693646058,45.12095303950236,0.00000000000000 	5.56901027737280,45.12095529685661,0.00000000000000 	5.56901329857440,45.12095726339067,0.00000000000000 	5.56901543231815,45.12095854829083,0.00000000000000 	5.56901543231815,45.12095854829083,0.00000000000000 	5.56903251925680,45.12095244769986,0.00000000000000 	5.56903251925680,45.12095244769986,0.00000000000000 	5.56902863553911,45.12095134555657,0.00000000000000 	5.56902503858826,45.12095016450584,0.00000000000000 	5.56902085298315,45.12094865534657,0.00000000000000 	5.56901851033032,45.12094759629986,0.00000000000000 	5.56901513944650,45.12094521485278,0.00000000000000 	5.56901151738306,45.12094264852911,0.00000000000000 	5.56900750596318,45.12093976014704,0.00000000000000 	5.56900376815397,45.12093698418828,0.00000000000000 	5.56900096692229,45.12093475513466,0.00000000000000 	5.56899976523483,45.12093350746807,0.00000000000000 	5.56899971410677,45.12093027677723,0.00000000000000 	5.56899973744551,45.12092677670993,0.00000000000000 	5.56899948435893,45.12092318865048,0.00000000000000 	5.56899867853456,45.12092036033597,0.00000000000000 	5.56899798199805,45.12091949600087,0.00000000000000 	5.56899448804153,45.12091792352788,0.00000000000000 	5.56899084418124,45.12091698583109,0.00000000000000 	5.56898683758098,45.12091598331831,0.00000000000000 	5.56898629629207,45.12091572021303,0.00000000000000 	5.56898437263471,45.12091258013601,0.00000000000000 	5.56898256811910,45.12090905999038,0.00000000000000 	5.56898127414184,45.12090641931255,0.00000000000000 	5.56898000819122,45.12090376066818,0.00000000000000 	5.56897835081541,45.12090014619800,0.00000000000000 	5.56897704547472,45.12089700133873,0.00000000000000 	5.56897695265630,45.12089666924768,0.00000000000000 	5.56897623059318,45.12089398093801,0.00000000000000 	5.56897537456096,45.12089127994732,0.00000000000000 	5.56897454715145,45.12088862133879,0.00000000000000 	5.56897312851891,45.12088560600293,0.00000000000000 	5.56897122351217,45.12088197037872,0.00000000000000 	5.56896879188350,45.12087744281406,0.00000000000000 	5.56896604001523,45.12087237334882,0.00000000000000 	5.56896460848568,45.12086974479090,0.00000000000000 	5.56896317428954,45.12086711202283,0.00000000000000 	5.56896176322456,45.12086451879952,0.00000000000000 	5.56895911367906,45.12085962600722,0.00000000000000 	5.56895686623102,45.12085541645393,0.00000000000000 	5.56895522726220,45.12085224017955,0.00000000000000 	5.56895440315431,45.12085044722401,0.00000000000000 	5.56895342145527,45.12084735882596,0.00000000000000 	5.56895268745725,45.12084433113579,0.00000000000000 	5.56895239193187,45.12084153555367,0.00000000000000 	5.56895241506342,45.12084124370438,0.00000000000000 	5.56895272734017,45.12083819397176,0.00000000000000 	5.56895300642601,45.12083532488962,0.00000000000000 	5.56895330034298,45.12083226089038,0.00000000000000 	5.56895356494309,45.12082948021352,0.00000000000000 	5.56895382960075,45.12082668178469,0.00000000000000 	5.56895382960075,45.12082668178469,0.00000000000000 	5.56894006554784,45.12082605326835,0.00000000000000 </coordinates>
</LinearRing>
</outerBoundaryIs>
</Polygon>
<Polygon>
<outerBoundaryIs>
<LinearRing>
<coordinates>
	5.56893921861440,45.12080869832047,0.00000000000000 	5.56893020763412,45.12081204766481,0.00000000000000 	5.56893020763412,45.12081204766481,0.00000000000000 	5.56893167526198,45.12081415775915,0.00000000000000 	5.56893352879319,45.12081681731737,0.00000000000000 	5.56893566244798,45.12081987005701,0.00000000000000 	5.56893770837799,45.12082278256865,0.00000000000000 	5.56894006566939,45.12082605327056,0.00000000000000 	5.56894006566939,45.12082605327056,0.00000000000000 	5.56895382972230,45.12082668178689,0.00000000000000 	5.56895382972230,45.12082668178689,0.00000000000000 	5.56895385248041,45.12082556550541,0.00000000000000 	5.56895367165963,45.12082258258071,0.00000000000000 	5.56895346981547,45.12081978905604,0.00000000000000 	5.56895324753129,45.12081615063367,0.00000000000000 	5.56895335673248,45.12081297489469,0.00000000000000 	5.56895732719319,45.12081251712652,0.00000000000000 	5.56896168775378,45.12081181787660,0.00000000000000 	5.56896154277355,45.12081158290768,0.00000000000000 	5.56895933266368,45.12080925712163,0.00000000000000 	5.56895650160162,45.12080663760589,0.00000000000000 	5.56895355683720,45.12080406256013,0.00000000000000 	5.56895060480906,45.12080173527291,0.00000000000000 	5.56894836326690,45.12080030421152,0.00000000000000 	5.56894517393115,45.12079832032143,0.00000000000000 	5.56894159362633,45.12079673770359,0.00000000000000 	5.56894003490083,45.12079690653003,0.00000000000000 	5.56893645092619,45.12079811831281,0.00000000000000 	5.56893371085543,45.12080005420047,0.00000000000000 	5.56893376442695,45.12080066173733,0.00000000000000 	5.56893538002184,45.12080323267036,0.00000000000000 	5.56893804790327,45.12080559948057,0.00000000000000 	5.56894143616973,45.12080794776740,0.00000000000000 	5.56894299820065,45.12080983331104,0.00000000000000 	5.56893921861440,45.12080869832047,0.00000000000000 </coordinates>
</LinearRing>
</outerBoundaryIs>
</Polygon>
<Polygon>
<outerBoundaryIs>
<LinearRing>
<coordinates>
	5.56882200282407,45.12061190768064,0.00000000000000 	5.56881723907682,45.12061330413953,0.00000000000000 	5.56881723907682,45.12061330413953,0.00000000000000 	5.56881781100846,45.12061580933581,0.00000000000000 	5.56881843627028,45.12061852359036,0.00000000000000 	5.56881920803812,45.12062184140182,0.00000000000000 	5.56882006654348,45.12062548460961,0.00000000000000 	5.56882095201784,45.12062917505325,0.00000000000000 	5.56882180469263,45.12063263457215,0.00000000000000 	5.56882256479927,45.12063558500584,0.00000000000000 	5.56882356823361,45.12063884597531,0.00000000000000 	5.56882453138613,45.12064116957988,0.00000000000000 	5.56882572515640,45.12064423293509,0.00000000000000 	5.56882721915012,45.12064782932542,0.00000000000000 	5.56882891991239,45.12065141969394,0.00000000000000 	5.56883073398820,45.12065446498367,0.00000000000000 	5.56883316749414,45.12065674576635,0.00000000000000 	5.56883583363470,45.12065812453677,0.00000000000000 	5.56884102770786,45.12066110220282,0.00000000000000 	5.56884437254854,45.12066306524994,0.00000000000000 	5.56884810916763,45.12066527757477,0.00000000000000 	5.56885215749687,45.12066768902867,0.00000000000000 	5.56885643746797,45.12067024946290,0.00000000000000 	5.56886086901262,45.12067290872876,0.00000000000000 	5.56886537206248,45.12067561667759,0.00000000000000 	5.56886986654919,45.12067832316069,0.00000000000000 	5.56887427240434,45.12068097802942,0.00000000000000 	5.56887850955950,45.12068353113513,0.00000000000000 	5.56888249794621,45.12068593232922,0.00000000000000 	5.56888615749599,45.12068813146298,0.00000000000000 	5.56889216981071,45.12069172295529,0.00000000000000 	5.56889672029292,45.12069434102637,0.00000000000000 	5.56889790888733,45.12069505760194,0.00000000000000 	5.56890072419059,45.12069715071720,0.00000000000000 	5.56890429478810,45.12070004762899,0.00000000000000 	5.56890682612778,45.12070219317615,0.00000000000000 	5.56890929015388,45.12070434754476,0.00000000000000 	5.56891250735494,45.12070729076917,0.00000000000000 	5.56891524912082,45.12071026586272,0.00000000000000 	5.56891535242380,45.12071051238459,0.00000000000000 	5.56891695781229,45.12071313074921,0.00000000000000 	5.56891823149862,45.12071585482089,0.00000000000000 	5.56891864254530,45.12071862801150,0.00000000000000 	5.56891865339719,45.12072040452591,0.00000000000000 	5.56891893203217,45.12072395408060,0.00000000000000 	5.56891945036352,45.12072727188569,0.00000000000000 	5.56892008493693,45.12073008540043,0.00000000000000 	5.56892098469449,45.12073276394487,0.00000000000000 	5.56892141810993,45.12073379621054,0.00000000000000 	5.56892263413896,45.12073698297498,0.00000000000000 	5.56892371151752,45.12073986356822,0.00000000000000 	5.56892491378767,45.12074308010009,0.00000000000000 	5.56892616512443,45.12074640206067,0.00000000000000 	5.56892738970278,45.12074959894004,0.00000000000000 	5.56892901053095,45.12075365549134,0.00000000000000 	5.56893037027997,45.12075647501617,0.00000000000000 	5.56893099854218,45.12075727860297,0.00000000000000 	5.56893274216318,45.12075972900347,0.00000000000000 	5.56893507181632,45.12076316570200,0.00000000000000 	5.56893674191339,45.12076572270752,0.00000000000000 	5.56893835960150,45.12076829496242,0.00000000000000 	5.56894041410745,45.12077181172035,0.00000000000000 	5.56894180332076,45.12077535163429,0.00000000000000 	5.56894180332076,45.12077535163429,0.00000000000000 	5.56893965315517,45.12077624701714,0.00000000000000 	5.56893589634681,45.12077727717936,0.00000000000000 	5.56893122535249,45.12077837101500,0.00000000000000 	5.56892633262906,45.12077945741807,0.00000000000000 	5.56892191063344,45.12078046528276,0.00000000000000 	5.56891746745000,45.12078177740086,0.00000000000000 	5.56891709223066,45.12078196516878,0.00000000000000 	5.56891338385127,45.12078331292638,0.00000000000000 	5.56891164783079,45.12078594587716,0.00000000000000 	5.56891255168995,45.12078889498166,0.00000000000000 	5.56891372035557,45.12079117074117,0.00000000000000 	5.56891539712753,45.12079416745075,0.00000000000000 	5.56891720743261,45.12079676247219,0.00000000000000 	5.56891806363215,45.12079793243780,0.00000000000000 	5.56892001326752,45.12080036625330,0.00000000000000 	5.56892245384227,45.12080327584862,0.00000000000000 	5.56892503945946,45.12080628000556,0.00000000000000 	5.56892742422198,45.12080899750588,0.00000000000000 	5.56893020759405,45.12081204766408,0.00000000000000 	5.56893020759405,45.12081204766408,0.00000000000000 	5.56893921857433,45.12080869831975,0.00000000000000 	5.56893921857433,45.12080869831975,0.00000000000000 	5.56893735813882,45.12080721142435,0.00000000000000 	5.56893465760964,45.12080475109798,0.00000000000000 	5.56893194819152,45.12080200428118,0.00000000000000 	5.56892949440885,45.12079925413666,0.00000000000000 	5.56892718965405,45.12079624315712,0.00000000000000 	5.56892483283803,45.12079365270105,0.00000000000000 	5.56892412430089,45.12079073036045,0.00000000000000 	5.56892701923137,45.12078907555050,0.00000000000000 	5.56893083061046,45.12078742591699,0.00000000000000 	5.56893530987842,45.12078554536350,0.00000000000000 	5.56893979285266,45.12078354121092,0.00000000000000 	5.56894361535073,45.12078152078007,0.00000000000000 	5.56894653663800,45.12077898704371,0.00000000000000 	5.56894780567138,45.12077654526158,0.00000000000000 	5.56894927191726,45.12077344376429,0.00000000000000 	5.56895015430423,45.12077056077694,0.00000000000000 	5.56894976290177,45.12076780184841,0.00000000000000 	5.56894840923284,45.12076585168494,0.00000000000000 	5.56894650952461,45.12076317648724,0.00000000000000 	5.56894443113626,45.12076009486522,0.00000000000000 	5.56894254142686,45.12075692542875,0.00000000000000 	5.56894120775535,45.12075398678779,0.00000000000000 	5.56894075295495,45.12075234202612,0.00000000000000 	5.56894012127240,45.12074901440938,0.00000000000000 	5.56893956237558,45.12074506341774,0.00000000000000 	5.56893923697201,45.12074231043396,0.00000000000000 	5.56893882979482,45.12073834346938,0.00000000000000 	5.56893853189540,45.12073498071223,0.00000000000000 	5.56893832833608,45.12073223256954,0.00000000000000 	5.56893829533889,45.12073170942669,0.00000000000000 	5.56893805733636,45.12072845722635,0.00000000000000 	5.56893779108595,45.12072523728354,0.00000000000000 	5.56893744647961,45.12072150302728,0.00000000000000 	5.56893703012564,45.12071753485804,0.00000000000000 	5.56893654863237,45.12071361317636,0.00000000000000 	5.56893600860809,45.12071001838272,0.00000000000000 	5.56893541666108,45.12070703087765,0.00000000000000 	5.56893410343196,45.12070399933516,0.00000000000000 	5.56893184933098,45.12070351896065,0.00000000000000 	5.56892746010460,45.12070290257437,0.00000000000000 	5.56892282718520,45.12070210464098,0.00000000000000 	5.56891921267994,45.12070066028428,0.00000000000000 	5.56891612681025,45.12069863245977,0.00000000000000 	5.56891225519544,45.12069669592844,0.00000000000000 	5.56890903148389,45.12069507217564,0.00000000000000 	5.56890568910061,45.12069305074804,0.00000000000000 	5.56890373274439,45.12069163347792,0.00000000000000 	5.56890025728914,45.12068915321051,0.00000000000000 	5.56889566275235,45.12068589054067,0.00000000000000 	5.56889034915146,45.12068212606319,0.00000000000000 	5.56888754770739,45.12068014333251,0.00000000000000 	5.56888471650374,45.12067814037299,0.00000000000000 	5.56888190554266,45.12067615225902,0.00000000000000 	5.56887916482626,45.12067421406499,0.00000000000000 	5.56887409413584,45.12067062773421,0.00000000000000 	5.56886990444913,45.12066766197577,0.00000000000000 	5.56886576815294,45.12066471455645,0.00000000000000 	5.56886422050033,45.12066372198309,0.00000000000000 	5.56886081418580,45.12066152787011,0.00000000000000 	5.56885786281273,45.12065953713284,0.00000000000000 	5.56885461350754,45.12065722166803,0.00000000000000 	5.56885127752612,45.12065466519176,0.00000000000000 	5.56884806612430,45.12065195142013,0.00000000000000 	5.56884519055785,45.12064916406921,0.00000000000000 	5.56884286208248,45.12064638685516,0.00000000000000 	5.56884129195385,45.12064370349413,0.00000000000000 	5.56884074350954,45.12064247767403,0.00000000000000 	5.56883923502913,45.12063965461108,0.00000000000000 	5.56883713916580,45.12063714516557,0.00000000000000 	5.56883401657008,45.12063522584999,0.00000000000000 	5.56883288789517,45.12063337698775,0.00000000000000 	5.56883098719371,45.12062989203792,0.00000000000000 	5.56882946079411,45.12062699444676,0.00000000000000 	5.56882784572910,45.12062387167505,0.00000000000000 	5.56882624378160,45.12062072451052,0.00000000000000 	5.56882475673451,45.12061775374102,0.00000000000000 	5.56882348637068,45.12061516015434,0.00000000000000 	5.56882200282407,45.12061190768064,0.00000000000000 </coordinates>
</LinearRing>
</outerBoundaryIs>
</Polygon>
<Polygon>
<outerBoundaryIs>
<LinearRing>
<coordinates>
	5.56881723846109,45.12061330412835,0.00000000000000 	5.56882200220833,45.12061190766946,0.00000000000000 	5.56882200220833,45.12061190766946,0.00000000000000 	5.56882201511962,45.12061180836670,0.00000000000000 	5.56882237611565,45.12060889358129,0.00000000000000 	5.56882272078629,45.12060588306620,0.00000000000000 	5.56882306152294,45.12060254321054,0.00000000000000 	5.56882331651665,45.12059937874442,0.00000000000000 	5.56882332876921,45.12059586526047,0.00000000000000 	5.56882271968968,45.12059476762358,0.00000000000000 	5.56882035117654,45.12059195747058,0.00000000000000 	5.56881809091754,45.12058955887765,0.00000000000000 	5.56881551660152,45.12058694067132,0.00000000000000 	5.56881282617972,45.12058427471963,0.00000000000000 	5.56881021760328,45.12058173289059,0.00000000000000 	5.56880689121669,45.12057852883844,0.00000000000000 	5.56880459003650,45.12057629530024,0.00000000000000 	5.56880282116195,45.12057462082208,0.00000000000000 	5.56880034295778,45.12057236962045,0.00000000000000 	5.56879731491901,45.12056966530951,0.00000000000000 	5.56879413053160,45.12056686792690,0.00000000000000 	5.56879118328138,45.12056433751037,0.00000000000000 	5.56878830259317,45.12056200118974,0.00000000000000 	5.56878547698917,45.12055996422664,0.00000000000000 	5.56878259148613,45.12055796044648,0.00000000000000 	5.56877944255282,45.12055582550221,0.00000000000000 	5.56877944255282,45.12055582550221,0.00000000000000 	5.56877888582003,45.12055308412859,0.00000000000000 	5.56877973702702,45.12054986263050,0.00000000000000 	5.56878128826297,45.12054617400467,0.00000000000000 	5.56878319079897,45.12054249691129,0.00000000000000 	5.56878509590625,45.12053931001070,0.00000000000000 	5.56878703730823,45.12053665064602,0.00000000000000 	5.56879078385837,45.12053515698898,0.00000000000000 	5.56879573146946,45.12053380366807,0.00000000000000 	5.56880202150350,45.12053226246696,0.00000000000000 	5.56880912466986,45.12053061752244,0.00000000000000 	5.56881281577435,45.12052978243913,0.00000000000000 	5.56881651167797,45.12052895297133,0.00000000000000 	5.56882365323738,45.12052735295065,0.00000000000000 	5.56883002005774,45.12052590159751,0.00000000000000 	5.56883508284879,45.12052468304915,0.00000000000000 	5.56883907415806,45.12052347578589,0.00000000000000 	5.56884113647579,45.12052111055089,0.00000000000000 	5.56884289040803,45.12051800802387,0.00000000000000 	5.56884461550173,45.12051432266495,0.00000000000000 	5.56884612596700,45.12051055484593,0.00000000000000 	5.56884723601404,45.12050720493867,0.00000000000000 	5.56884777208593,45.12050425332080,0.00000000000000 	5.56884777208593,45.12050425332080,0.00000000000000 	5.56884653302952,45.12050181203436,0.00000000000000 	5.56884517484979,45.12049894947312,0.00000000000000 	5.56884373785201,45.12049585092421,0.00000000000000 	5.56884377354220,45.12049592124573,0.00000000000000 	5.56884509047370,45.12049853358576,0.00000000000000 	5.56884642575594,45.12050121920758,0.00000000000000 	5.56884777208593,45.12050425332080,0.00000000000000 	5.56884373785201,45.12049585092421,0.00000000000000 	5.56884288886202,45.12049556342692,0.00000000000000 	5.56883926494459,45.12049442861610,0.00000000000000 	5.56883523621032,45.12049335301224,0.00000000000000 	5.56883140142213,45.12049265869200,0.00000000000000 	5.56882780560278,45.12049341863594,0.00000000000000 	5.56882399492129,45.12049482870057,0.00000000000000 	5.56881941061999,45.12049676780273,0.00000000000000 	5.56881435883179,45.12049906990465,0.00000000000000 	5.56880914568973,45.12050156896864,0.00000000000000 	5.56880407732691,45.12050409895702,0.00000000000000 	5.56879945987659,45.12050649383221,0.00000000000000 	5.56879559947212,45.12050858755661,0.00000000000000 	5.56879189799321,45.12051080027846,0.00000000000000 	5.56879116148813,45.12051135390123,0.00000000000000 	5.56878882273759,45.12051354903252,0.00000000000000 	5.56878638739383,45.12051631308542,0.00000000000000 	5.56878398050508,45.12051934716608,0.00000000000000 	5.56878172711964,45.12052235238065,0.00000000000000 	5.56877975228590,45.12052502983534,0.00000000000000 	5.56877776861001,45.12052757331958,0.00000000000000 	5.56877658976183,45.12052901984012,0.00000000000000 	5.56877457892497,45.12053180470747,0.00000000000000 	5.56877276228130,45.12053456742301,0.00000000000000 	5.56877109842239,45.12053732228286,0.00000000000000 	5.56876964725550,45.12053975499071,0.00000000000000 	5.56876776595703,45.12054306337377,0.00000000000000 	5.56876639141425,45.12054569187354,0.00000000000000 	5.56876508065613,45.12054848218690,0.00000000000000 	5.56876397087675,45.12055128301510,0.00000000000000 	5.56876298315498,45.12055517300664,0.00000000000000 	5.56876365009685,45.12055898434211,0.00000000000000 	5.56876638132518,45.12056155666793,0.00000000000000 	5.56876999571198,45.12056392243065,0.00000000000000 	5.56877403922214,45.12056613850270,0.00000000000000 	5.56877805782049,45.12056826175649,0.00000000000000 	5.56878159747180,45.12057034906464,0.00000000000000 	5.56878357672946,45.12057203075214,0.00000000000000 	5.56878543368762,45.12057466986893,0.00000000000000 	5.56878670678340,45.12057755027516,0.00000000000000 	5.56878773410199,45.12058044040065,0.00000000000000 	5.56878918767779,45.12058371394246,0.00000000000000 	5.56879116033822,45.12058667605469,0.00000000000000 	5.56879324276410,45.12058947259270,0.00000000000000 	5.56879565591396,45.12059249994967,0.00000000000000 	5.56879823232146,45.12059552232694,0.00000000000000 	5.56880080452020,45.12059830392579,0.00000000000000 	5.56880393812328,45.12060123062677,0.00000000000000 	5.56880713777849,45.12060384868551,0.00000000000000 	5.56880977461031,45.12060604561866,0.00000000000000 	5.56881234160148,45.12060824472088,0.00000000000000 	5.56881523085367,45.12061087241987,0.00000000000000 	5.56881723846109,45.12061330412835,0.00000000000000 </coordinates>
</LinearRing>
</outerBoundaryIs>
</Polygon>
<Polygon>
<outerBoundaryIs>
<LinearRing>
<coordinates>
	5.56894082776558,45.12035126290059,0.00000000000000 	5.56892036804266,45.12033626315839,0.00000000000000 	5.56892036804266,45.12033626315839,0.00000000000000 	5.56892012589602,45.12033668741829,0.00000000000000 	5.56891853890134,45.12033920195359,0.00000000000000 	5.56891650128622,45.12034207324442,0.00000000000000 	5.56891433018865,45.12034483200497,0.00000000000000 	5.56891282951068,45.12034608180125,0.00000000000000 	5.56890845178894,45.12034745486155,0.00000000000000 	5.56890444519023,45.12034771226289,0.00000000000000 	5.56890027672109,45.12034751077605,0.00000000000000 	5.56889635867805,45.12034703324846,0.00000000000000 	5.56889150492639,45.12034612056798,0.00000000000000 	5.56889150492639,45.12034612056798,0.00000000000000 	5.56888217747978,45.12034398953900,0.00000000000000 	5.56888217747978,45.12034398953900,0.00000000000000 	5.56887386444251,45.12034262994206,0.00000000000000 	5.56887386444251,45.12034262994206,0.00000000000000 	5.56886131151989,45.12034333386568,0.00000000000000 	5.56886131151989,45.12034333386568,0.00000000000000 	5.56885796810771,45.12034512348114,0.00000000000000 	5.56885443431824,45.12034710968816,0.00000000000000 	5.56885055129785,45.12034931586895,0.00000000000000 	5.56884697079048,45.12035136209720,0.00000000000000 	5.56884332429150,45.12035345499126,0.00000000000000 	5.56884175009182,45.12035419754145,0.00000000000000 	5.56883849988806,45.12035576932367,0.00000000000000 	5.56883511557890,45.12035744731975,0.00000000000000 	5.56883107318526,45.12035950231656,0.00000000000000 	5.56882651070883,45.12036188854906,0.00000000000000 	5.56882324827198,45.12036364079051,0.00000000000000 	5.56882115033229,45.12036529366257,0.00000000000000 	5.56882059268853,45.12036801747067,0.00000000000000 	5.56882237453982,45.12037092778569,0.00000000000000 	5.56882563230920,45.12037390435290,0.00000000000000 	5.56882950241949,45.12037682691761,0.00000000000000 	5.56883312129329,45.12037957522514,0.00000000000000 	5.56883562535303,45.12038202902097,0.00000000000000 	5.56883751532439,45.12038529615483,0.00000000000000 	5.56883895888530,45.12038838101246,0.00000000000000 	5.56884046718412,45.12039196151123,0.00000000000000 	5.56884196982698,45.12039584070239,0.00000000000000 	5.56884339642000,45.12039982163719,0.00000000000000 	5.56884467656925,45.12040370736683,0.00000000000000 	5.56884573988077,45.12040730094254,0.00000000000000 	5.56884651596055,45.12041040541560,0.00000000000000 	5.56884698753385,45.12041371423228,0.00000000000000 	5.56884608799506,45.12041616043641,0.00000000000000 	5.56884370124479,45.12041884051855,0.00000000000000 	5.56884026525585,45.12042170826777,0.00000000000000 	5.56883760796911,45.12042370153987,0.00000000000000 	5.56883480877845,45.12042574398924,0.00000000000000 	5.56883199745368,45.12042782192380,0.00000000000000 	5.56882930376460,45.12042992165144,0.00000000000000 	5.56882576766943,45.12043308215353,0.00000000000000 	5.56882401051945,45.12043562299579,0.00000000000000 	5.56882284905902,45.12043888183502,0.00000000000000 	5.56882219726671,45.12044264939880,0.00000000000000 	5.56882196912109,45.12044671641460,0.00000000000000 	5.56882207860072,45.12045087360995,0.00000000000000 	5.56882243968417,45.12045491171236,0.00000000000000 	5.56882296634996,45.12045862144930,0.00000000000000 	5.56882357257656,45.12046179354831,0.00000000000000 	5.56882467962601,45.12046568774249,0.00000000000000 	5.56882575445342,45.12046706123200,0.00000000000000 	5.56882902831937,45.12046930515881,0.00000000000000 	5.56883243077341,45.12047105955562,0.00000000000000 	5.56883599907437,45.12047277769214,0.00000000000000 	5.56883924355373,45.12047445952891,0.00000000000000 	5.56884169797589,45.12047617717938,0.00000000000000 	5.56884449095945,45.12047861965328,0.00000000000000 	5.56884734506911,45.12048146989202,0.00000000000000 	5.56884998286946,45.12048441083706,0.00000000000000 	5.56885212692499,45.12048712542995,0.00000000000000 	5.56885384961126,45.12049028560006,0.00000000000000 	5.56885383037892,45.12049065324835,0.00000000000000 	5.56885099665675,45.12049278812563,0.00000000000000 	5.56884754962715,45.12049404642179,0.00000000000000 	5.56884373735621,45.12049585091523,0.00000000000000 	5.56884373735621,45.12049585091523,0.00000000000000 	5.56884777159012,45.12050425331179,0.00000000000000 	5.56884777159012,45.12050425331179,0.00000000000000 	5.56884802039344,45.12050402256471,0.00000000000000 	5.56885077855225,45.12050157141775,0.00000000000000 	5.56885321948570,45.12049942774765,0.00000000000000 	5.56885586011186,45.12049711387607,0.00000000000000 	5.56885838147421,45.12049490351350,0.00000000000000 	5.56886145241264,45.12049219300708,0.00000000000000 	5.56886194921181,45.12049041560739,0.00000000000000 	5.56886190868174,45.12048681686981,0.00000000000000 	5.56886144116132,45.12048184177357,0.00000000000000 	5.56886108176063,45.12047897714693,0.00000000000000 	5.56886065698943,45.12047593529783,0.00000000000000 	5.56886018064009,45.12047277184862,0.00000000000000 	5.56885966650495,45.12046954242175,0.00000000000000 	5.56885912837636,45.12046630263957,0.00000000000000 	5.56885858004667,45.12046310812450,0.00000000000000 	5.56885803530821,45.12046001449892,0.00000000000000 	5.56885750795331,45.12045707738524,0.00000000000000 	5.56885701177431,45.12045435240584,0.00000000000000 	5.56885616811327,45.12044976133955,0.00000000000000 	5.56885548124891,45.12044585630720,0.00000000000000 	5.56885546270117,45.12044280991211,0.00000000000000 	5.56885565152114,45.12043954002213,0.00000000000000 	5.56885595897012,45.12043559167255,0.00000000000000 	5.56885634877459,45.12043123289909,0.00000000000000 	5.56885678466107,45.12042673173743,0.00000000000000 	5.56885723035607,45.12042235622333,0.00000000000000 	5.56885764958614,45.12041837439249,0.00000000000000 	5.56885800607784,45.12041505428061,0.00000000000000 	5.56885834383282,45.12041190116395,0.00000000000000 	5.56885841242782,45.12041109149975,0.00000000000000 	5.56885858491107,45.12040835569874,0.00000000000000 	5.56885879345629,45.12040441629038,0.00000000000000 	5.56885902486861,45.12039961530201,0.00000000000000 	5.56885926595318,45.12039429476093,0.00000000000000 	5.56885938599917,45.12039154654170,0.00000000000000 	5.56885950351516,45.12038879669451,0.00000000000000 	5.56885972435970,45.12038346313002,0.00000000000000 	5.56885991529199,45.12037863609473,0.00000000000000 	5.56886006311721,45.12037465761604,0.00000000000000 	5.56886017516564,45.12037102912628,0.00000000000000 	5.56886187082604,45.12036924231590,0.00000000000000 	5.56886622747649,45.12036769457480,0.00000000000000 	5.56887011942541,45.12036679840303,0.00000000000000 	5.56887445781785,45.12036601274341,0.00000000000000 	5.56887894816635,45.12036533929957,0.00000000000000 	5.56888329598350,45.12036477977529,0.00000000000000 	5.56888720678188,45.12036433587440,0.00000000000000 	5.56889253937270,45.12036380175790,0.00000000000000 	5.56889629529525,45.12036394950718,0.00000000000000 	5.56890011940942,45.12036438482422,0.00000000000000 	5.56890468393701,45.12036500760536,0.00000000000000 	5.56890971826156,45.12036574757360,0.00000000000000 	5.56891495176654,45.12036653445195,0.00000000000000 	5.56892011383541,45.12036729796348,0.00000000000000 	5.56892493385157,45.12036796783127,0.00000000000000 	5.56892914119840,45.12036847377851,0.00000000000000 	5.56893371148973,45.12036877161777,0.00000000000000 	5.56893568148485,45.12036825718722,0.00000000000000 	5.56893789760823,45.12036599389029,0.00000000000000 	5.56893936440004,45.12036256555111,0.00000000000000 	5.56894023633598,45.12035867522614,0.00000000000000 	5.56894066789175,45.12035502597179,0.00000000000000 	5.56894082776558,45.12035126290059,0.00000000000000 </coordinates>
</LinearRing>
</outerBoundaryIs>
</Polygon>
<Polygon>
<outerBoundaryIs>
<LinearRing>
<coordinates>
	5.56899478596230,45.11998351235646,0.00000000000000 	5.56893876307147,45.12000880591019,0.00000000000000 	5.56893876307147,45.12000880591019,0.00000000000000 	5.56893881041346,45.12001040030626,0.00000000000000 	5.56893920937119,45.12001402273409,0.00000000000000 	5.56893993636208,45.12001805409916,0.00000000000000 	5.56894089818791,45.12002229130915,0.00000000000000 	5.56894200165039,45.12002653127162,0.00000000000000 	5.56894315355123,45.12003057089424,0.00000000000000 	5.56894426069207,45.12003420708463,0.00000000000000 	5.56894522987451,45.12003723675041,0.00000000000000 	5.56894643764801,45.12004082457614,0.00000000000000 	5.56894643764801,45.12004082457614,0.00000000000000 	5.56894737081643,45.12004268747498,0.00000000000000 	5.56894873968459,45.12004524496219,0.00000000000000 	5.56895039618597,45.12004831681329,0.00000000000000 	5.56895219225404,45.12005172280373,0.00000000000000 	5.56895397982221,45.12005528270899,0.00000000000000 	5.56895561082383,45.12005881630461,0.00000000000000 	5.56895693719219,45.12006214336610,0.00000000000000 	5.56895803166135,45.12006635246577,0.00000000000000 	5.56895760783008,45.12006908310084,0.00000000000000 	5.56895603377005,45.12007021539040,0.00000000000000 	5.56895162474097,45.12007172996083,0.00000000000000 	5.56894776889316,45.12007265604575,0.00000000000000 	5.56894353888736,45.12007354638543,0.00000000000000 	5.56893924247052,45.12007442768667,0.00000000000000 	5.56893518738961,45.12007532665618,0.00000000000000 	5.56893023046964,45.12007676665961,0.00000000000000 	5.56892733822403,45.12007899776698,0.00000000000000 	5.56892860269494,45.12008201525598,0.00000000000000 	5.56893008899559,45.12008471489797,0.00000000000000 	5.56893204413506,45.12008807911038,0.00000000000000 	5.56893439270988,45.12009201087223,0.00000000000000 	5.56893705931656,45.12009641316255,0.00000000000000 	5.56893996855159,45.12010118896043,0.00000000000000 	5.56894304501143,45.12010624124491,0.00000000000000 	5.56894621329250,45.12011147299502,0.00000000000000 	5.56894939799116,45.12011678718986,0.00000000000000 	5.56895252370373,45.12012208680854,0.00000000000000 	5.56895551502648,45.12012727483005,0.00000000000000 	5.56895829655563,45.12013225423358,0.00000000000000 	5.56896079288734,45.12013692799819,0.00000000000000 	5.56896292861778,45.12014119910297,0.00000000000000 	5.56896462834304,45.12014497052707,0.00000000000000 	5.56896581665923,45.12014814524952,0.00000000000000 	5.56896555911468,45.12015311899827,0.00000000000000 	5.56896097624402,45.12015400407524,0.00000000000000 	5.56895705068350,45.12015451206694,0.00000000000000 	5.56895270612738,45.12015497913413,0.00000000000000 	5.56894818022292,45.12015542646813,0.00000000000000 	5.56894371061740,45.12015587526037,0.00000000000000 	5.56893953495808,45.12015634670224,0.00000000000000 	5.56893434247162,45.12015714268939,0.00000000000000 	5.56893066600927,45.12015848106633,0.00000000000000 	5.56892917867938,45.12015972464550,0.00000000000000 	5.56892601688697,45.12016162123621,0.00000000000000 	5.56892239375935,45.12016374940492,0.00000000000000 	5.56891927555234,45.12016606445029,0.00000000000000 	5.56891755986879,45.12016915295255,0.00000000000000 	5.56891766409562,45.12017118803590,0.00000000000000 	5.56891795452121,45.12017417321219,0.00000000000000 	5.56891831805241,45.12017721529994,0.00000000000000 	5.56891864561196,45.12018003760183,0.00000000000000 	5.56891883830376,45.12018283487423,0.00000000000000 	5.56891928159707,45.12018512815552,0.00000000000000 	5.56892048444791,45.12018982101825,0.00000000000000 	5.56892131429697,45.12019287813240,0.00000000000000 	5.56892226634292,45.12019630814959,0.00000000000000 	5.56892331802158,45.12020003540576,0.00000000000000 	5.56892444676878,45.12020398423679,0.00000000000000 	5.56892563002031,45.12020807897857,0.00000000000000 	5.56892684521199,45.12021224396702,0.00000000000000 	5.56892806977961,45.12021640353801,0.00000000000000 	5.56892928115892,45.12022048202748,0.00000000000000 	5.56893045678569,45.12022440377130,0.00000000000000 	5.56893157409568,45.12022809310542,0.00000000000000 	5.56893261052461,45.12023147436569,0.00000000000000 	5.56893435048222,45.12023701000840,0.00000000000000 	5.56893578970380,45.12024111131640,0.00000000000000 	5.56893606026401,45.12024160141173,0.00000000000000 	5.56893770972026,45.12024464833866,0.00000000000000 	5.56893933396647,45.12024767524927,0.00000000000000 	5.56894121593117,45.12025120163542,0.00000000000000 	5.56894321678416,45.12025497290396,0.00000000000000 	5.56894519769519,45.12025873446180,0.00000000000000 	5.56894701983394,45.12026223171588,0.00000000000000 	5.56894854437002,45.12026521007310,0.00000000000000 	5.56895014531238,45.12026859172472,0.00000000000000 	5.56895109553671,45.12027016208787,0.00000000000000 	5.56895307949457,45.12027286378896,0.00000000000000 	5.56895560223080,45.12027628296869,0.00000000000000 	5.56895733895390,45.12027875664614,0.00000000000000 	5.56895894850045,45.12028124264060,0.00000000000000 	5.56896080355971,45.12028472648467,0.00000000000000 	5.56896146308781,45.12028827022017,0.00000000000000 	5.56896051313941,45.12029115605316,0.00000000000000 	5.56895950857849,45.12029388645255,0.00000000000000 	5.56895830218242,45.12029702692450,0.00000000000000 	5.56895697552933,45.12030037592397,0.00000000000000 	5.56895561019738,45.12030373190575,0.00000000000000 	5.56895428776477,45.12030689332480,0.00000000000000 	5.56895256300450,45.12031082976824,0.00000000000000 	5.56895117486889,45.12031351630207,0.00000000000000 	5.56895095507146,45.12031375188714,0.00000000000000 	5.56894853881352,45.12031614909056,0.00000000000000 	5.56894567436977,45.12031883957036,0.00000000000000 	5.56894273226963,45.12032141909503,0.00000000000000 	5.56893968851894,45.12032346936923,0.00000000000000 	5.56893757834192,45.12032378703069,0.00000000000000 	5.56893348266172,45.12032468030691,0.00000000000000 	5.56892943819497,45.12032617009032,0.00000000000000 	5.56892620139222,45.12032804534240,0.00000000000000 	5.56892547032885,45.12032858142570,0.00000000000000 	5.56892296400526,45.12033083671425,0.00000000000000 	5.56892148881824,45.12033339514512,0.00000000000000 	5.56892036819614,45.12033626316117,0.00000000000000 	5.56892036819614,45.12033626316117,0.00000000000000 	5.56894082791906,45.12035126290338,0.00000000000000 	5.56894082791906,45.12035126290338,0.00000000000000 	5.56894221839911,45.12034821797496,0.00000000000000 	5.56894382612705,45.12034473946475,0.00000000000000 	5.56894505329135,45.12034210183739,0.00000000000000 	5.56894633402350,45.12033936507977,0.00000000000000 	5.56894760771605,45.12033666270573,0.00000000000000 	5.56894937247692,45.12033296567548,0.00000000000000 	5.56895113518383,45.12032940277368,0.00000000000000 	5.56895215029832,45.12032735430571,0.00000000000000 	5.56895369218008,45.12032418008202,0.00000000000000 	5.56895542404070,45.12032093615172,0.00000000000000 	5.56895731824683,45.12031809869953,0.00000000000000 	5.56895987220532,45.12031584893172,0.00000000000000 	5.56896284704224,45.12031432958383,0.00000000000000 	5.56896604541781,45.12031259152202,0.00000000000000 	5.56896984404563,45.12031041981320,0.00000000000000 	5.56897392418130,45.12030794001481,0.00000000000000 	5.56897796708051,45.12030527768428,0.00000000000000 	5.56898165399903,45.12030255837908,0.00000000000000 	5.56898466619275,45.12029990765671,0.00000000000000 	5.56898668491762,45.12029745107474,0.00000000000000 	5.56898715299839,45.12029440487223,0.00000000000000 	5.56898559181317,45.12029169433047,0.00000000000000 	5.56898292178512,45.12028724838977,0.00000000000000 	5.56898126186450,45.12028451389505,0.00000000000000 	5.56897943382454,45.12028151265087,0.00000000000000 	5.56897747402899,45.12027830035731,0.00000000000000 	5.56897541884164,45.12027493271447,0.00000000000000 	5.56897330462621,45.12027146542247,0.00000000000000 	5.56897116774643,45.12026795418135,0.00000000000000 	5.56896904456603,45.12026445469128,0.00000000000000 	5.56896697144869,45.12026102265232,0.00000000000000 	5.56896498475808,45.12025771376459,0.00000000000000 	5.56896312085788,45.12025458372820,0.00000000000000 	5.56896141611172,45.12025168824325,0.00000000000000 	5.56895862953608,45.12024682372815,0.00000000000000 	5.56895655241872,45.12024267859417,0.00000000000000 	5.56895633444195,45.12024184520926,0.00000000000000 	5.56895570609760,45.12023898519759,0.00000000000000 	5.56895488781467,45.12023483239813,0.00000000000000 	5.56895395949217,45.12022974465254,0.00000000000000 	5.56895347903451,45.12022696200047,0.00000000000000 	5.56895300102907,45.12022407980246,0.00000000000000 	5.56895253546321,45.12022114278879,0.00000000000000 	5.56895209232429,45.12021819568962,0.00000000000000 	5.56895168159966,45.12021528323520,0.00000000000000 	5.56895131327668,45.12021245015566,0.00000000000000 	5.56895074378505,45.12020720104220,0.00000000000000 	5.56895046374818,45.12020280619097,0.00000000000000 	5.56895076119906,45.12019859843438,0.00000000000000 	5.56895132137035,45.12019762997168,0.00000000000000 	5.56895400507799,45.12019485860596,0.00000000000000 	5.56895834683751,45.12019118144293,0.00000000000000 	5.56896097957367,45.12018908073360,0.00000000000000 	5.56896383492713,45.12018684663038,0.00000000000000 	5.56896684893271,45.12018451015172,0.00000000000000 	5.56896995762522,45.12018210231611,0.00000000000000 	5.56897309703949,45.12017965414208,0.00000000000000 	5.56897620321037,45.12017719664806,0.00000000000000 	5.56897921217273,45.12017476085261,0.00000000000000 	5.56898205996145,45.12017237777426,0.00000000000000 	5.56898468261145,45.12017007843146,0.00000000000000 	5.56898701615764,45.12016789384282,0.00000000000000 	5.56899056007831,45.12016399300192,0.00000000000000 	5.56899210855420,45.12015977785961,0.00000000000000 	5.56899016121422,45.12015609162165,0.00000000000000 	5.56898843054121,45.12015312315642,0.00000000000000 	5.56898629087305,45.12014952790405,0.00000000000000 	5.56898381396489,45.12014539844725,0.00000000000000 	5.56898107157185,45.12014082736879,0.00000000000000 	5.56897813544904,45.12013590725145,0.00000000000000 	5.56897507735153,45.12013073067802,0.00000000000000 	5.56897196903434,45.12012539023122,0.00000000000000 	5.56896888225246,45.12011997849388,0.00000000000000 	5.56896588876082,45.12011458804876,0.00000000000000 	5.56896306031429,45.12010931147866,0.00000000000000 	5.56896046866772,45.12010424136641,0.00000000000000 	5.56895818557591,45.12009947029480,0.00000000000000 	5.56895628279362,45.12009509084663,0.00000000000000 	5.56895483207560,45.12009119560469,0.00000000000000 	5.56895357385135,45.12008522807091,0.00000000000000 	5.56895498494124,45.12008230835579,0.00000000000000 	5.56895645864794,45.12008176517905,0.00000000000000 	5.56896086699301,45.12008045760452,0.00000000000000 	5.56896505980326,45.12007949281561,0.00000000000000 	5.56896878460001,45.12007869062217,0.00000000000000 	5.56897258659167,45.12007756251749,0.00000000000000 	5.56897457878926,45.12007487739260,0.00000000000000 	5.56897485566797,45.12007136393811,0.00000000000000 	5.56897566522168,45.12006752105644,0.00000000000000 	5.56897683527375,45.12006287875136,0.00000000000000 	5.56897824627334,45.12005778077098,0.00000000000000 	5.56897977866970,45.12005257086353,0.00000000000000 	5.56898131291214,45.12004759277708,0.00000000000000 	5.56898272945007,45.12004319025984,0.00000000000000 	5.56898390873295,45.12003970705999,0.00000000000000 	5.56898497128735,45.12003695792939,0.00000000000000 	5.56898551283824,45.12003502455295,0.00000000000000 	5.56898637865821,45.12003085039569,0.00000000000000 	5.56898690662494,45.12002809678294,0.00000000000000 	5.56898748380597,45.12002499148536,0.00000000000000 	5.56898809958363,45.12002160400644,0.00000000000000 	5.56898874334027,45.12001800384968,0.00000000000000 	5.56898940445824,45.12001426051850,0.00000000000000 	5.56899007231989,45.12001044351638,0.00000000000000 	5.56899073630761,45.12000662234679,0.00000000000000 	5.56899138580374,45.12000286651320,0.00000000000000 	5.56899201019069,45.11999924551910,0.00000000000000 	5.56899259885081,45.11999582886791,0.00000000000000 	5.56899314116651,45.11999268606310,0.00000000000000 	5.56899404429418,45.11998750000659,0.00000000000000 	5.56899478596230,45.11998351235646,0.00000000000000 </coordinates>
</LinearRing>
</outerBoundaryIs>
</Polygon>
<Polygon>
<outerBoundaryIs>
<LinearRing>
<coordinates>
	5.56901653609148,45.12000482453300,0.00000000000000 	5.56901231434346,45.12000513075770,0.00000000000000 	5.56900693031982,45.12000538779800,0.00000000000000 	5.56900295172335,45.12000557246775,0.00000000000000 	5.56899884125188,45.12000579622904,0.00000000000000 	5.56899475278218,45.12000608346253,0.00000000000000 	5.56899084019101,45.12000645854874,0.00000000000000 	5.56898563768190,45.12000723923456,0.00000000000000 	5.56898169645627,45.12000835473007,0.00000000000000 	5.56898038102008,45.12000891803385,0.00000000000000 	5.56897654152046,45.12001077806329,0.00000000000000 	5.56897285938943,45.12001301940388,0.00000000000000 	5.56896933096929,45.12001580422783,0.00000000000000 	5.56896706227786,45.12001804279733,0.00000000000000 	5.56896485919296,45.12002064304250,0.00000000000000 	5.56896272063078,45.12002365301436,0.00000000000000 	5.56896064550755,45.12002712076393,0.00000000000000 	5.56895863273948,45.12003109434219,0.00000000000000 	5.56895744776322,45.12003337368679,0.00000000000000 	5.56895591185602,45.12003595295136,0.00000000000000 	5.56895408062468,45.12003880774213,0.00000000000000 	5.56895200967603,45.12004191366518,0.00000000000000 	5.56894975461690,45.12004524632673,0.00000000000000 	5.56894737105412,45.12004878133285,0.00000000000000 	5.56894491459456,45.12005249428976,0.00000000000000 	5.56894244084509,45.12005636080361,0.00000000000000 	5.56894000541260,45.12006035648060,0.00000000000000 	5.56893766390401,45.12006445692685,0.00000000000000 	5.56893547192626,45.12006863774857,0.00000000000000 	5.56893348508629,45.12007287455193,0.00000000000000 	5.56893175899109,45.12007714294316,0.00000000000000 	5.56893034924766,45.12008141852839,0.00000000000000 	5.56892931146301,45.12008567691382,0.00000000000000 	5.56892870124420,45.12008989370569,0.00000000000000 	5.56892857419826,45.12009404451008,0.00000000000000 	5.56892898593228,45.12009810493328,0.00000000000000 	5.56892999205332,45.12010205058138,0.00000000000000 	5.56893164816848,45.12010585706057,0.00000000000000 	5.56893286268187,45.12010789080799,0.00000000000000 	5.56893569450387,45.12011141609240,0.00000000000000 	5.56893897911004,45.12011426683563,0.00000000000000 	5.56894261536894,45.12011650112473,0.00000000000000 	5.56894650214916,45.12011817704693,0.00000000000000 	5.56895053831923,45.12011935268939,0.00000000000000 	5.56895462274769,45.12012008613926,0.00000000000000 	5.56895865430311,45.12012043548377,0.00000000000000 	5.56896253185404,45.12012045881013,0.00000000000000 	5.56896783819707,45.12012000958147,0.00000000000000 	5.56897299779435,45.12011899350257,0.00000000000000 	5.56897809084446,45.12011750776895,0.00000000000000 	5.56898289343818,45.12011575108789,0.00000000000000 	5.56898718166639,45.12011392216659,0.00000000000000 	5.56899073162006,45.12011221971235,0.00000000000000 	5.56899439945166,45.12011020302534,0.00000000000000 	5.56899549214474,45.12010938637380,0.00000000000000 	5.56899804985602,45.12010719177191,0.00000000000000 	5.56900132590439,45.12010422761371,0.00000000000000 	5.56900369564122,45.12010204286216,0.00000000000000 	5.56900720874612,45.12009878109346,0.00000000000000 	5.56901028798208,45.12009593174846,0.00000000000000 	5.56901297192320,45.12009354026807,0.00000000000000 	5.56901338309685,45.12009290792273,0.00000000000000 	5.56901429876082,45.12008996456196,0.00000000000000 	5.56901530662501,45.12008521496378,0.00000000000000 	5.56901583304892,45.12008232482167,0.00000000000000 	5.56901636802297,45.12007917751541,0.00000000000000 	5.56901690671388,45.12007583784341,0.00000000000000 	5.56901744428833,45.12007237060406,0.00000000000000 	5.56901797591305,45.12006884059574,0.00000000000000 	5.56901849675475,45.12006531261692,0.00000000000000 	5.56901900198014,45.12006185146595,0.00000000000000 	5.56901948675595,45.12005852194121,0.00000000000000 	5.56901994624890,45.12005538884112,0.00000000000000 	5.56902037562573,45.12005251696412,0.00000000000000 	5.56902112469790,45.12004781607285,0.00000000000000 	5.56902190160346,45.12004434386883,0.00000000000000 </coordinates>
</LinearRing>
</outerBoundaryIs>
</Polygon>
<Polygon>
<outerBoundaryIs>
<LinearRing>
<coordinates>
	5.56917463433671,45.11991858058157,0.00000000000000 	5.56917575867710,45.11991874771382,0.00000000000000 	5.56918000424404,45.11991834205374,0.00000000000000 	5.56918360310702,45.11991729021651,0.00000000000000 	5.56918455152180,45.11991528411673,0.00000000000000 	5.56918461421878,45.11991245854990,0.00000000000000 	5.56918216377649,45.11991162953429,0.00000000000000 	5.56917794436265,45.11991162384378,0.00000000000000 	5.56917575830538,45.11991184806913,0.00000000000000 	5.56917273680094,45.11991371932492,0.00000000000000 	5.56917297060737,45.11991582874198,0.00000000000000 	5.56917463433671,45.11991858058157,0.00000000000000 </coordinates>
</LinearRing>
</outerBoundaryIs>
</Polygon>
<Polygon>
<outerBoundaryIs>
<LinearRing>
<coordinates>
	5.56922445084761,45.11989192518068,0.00000000000000 	5.56918056911720,45.11987994714556,0.00000000000000 	5.56918056911720,45.11987994714556,0.00000000000000 	5.56917868097165,45.11988035144444,0.00000000000000 	5.56917418114359,45.11988122661756,0.00000000000000 	5.56916934201140,45.11988218209724,0.00000000000000 	5.56916491406932,45.11988320773079,0.00000000000000 	5.56916068484395,45.11988485551088,0.00000000000000 	5.56915923353916,45.11988568004494,0.00000000000000 	5.56915475949638,45.11988775209493,0.00000000000000 	5.56915075682255,45.11988957170172,0.00000000000000 	5.56914634729525,45.11989164702666,0.00000000000000 	5.56914188159692,45.11989389674926,0.00000000000000 	5.56913771041008,45.11989623954913,0.00000000000000 	5.56913418441734,45.11989859410583,0.00000000000000 	5.56913165430138,45.11990087909908,0.00000000000000 	5.56913049351495,45.11990399826919,0.00000000000000 	5.56913110150091,45.11990764048048,0.00000000000000 	5.56913143864396,45.11991075400663,0.00000000000000 	5.56913181985051,45.11991420737876,0.00000000000000 	5.56913232964196,45.11991782191497,0.00000000000000 	5.56913305253970,45.11992141893337,0.00000000000000 	5.56913407306515,45.11992481975200,0.00000000000000 	5.56913547573972,45.11992784568896,0.00000000000000 	5.56913734508483,45.11993031806231,0.00000000000000 	5.56914120900020,45.11993259782380,0.00000000000000 	5.56914265751436,45.11993311106731,0.00000000000000 	5.56914612597547,45.11993562626744,0.00000000000000 	5.56914842932135,45.11993917542853,0.00000000000000 	5.56914941315884,45.11994184342324,0.00000000000000 	5.56915020466511,45.11994588944294,0.00000000000000 	5.56915034707901,45.11994949773195,0.00000000000000 	5.56914966758701,45.11995303986659,0.00000000000000 	5.56914817553914,45.11995519732278,0.00000000000000 	5.56914643280427,45.11995791282347,0.00000000000000 	5.56914448643478,45.11996113741536,0.00000000000000 	5.56914263429881,45.11996448270826,0.00000000000000 	5.56914117426460,45.11996756031204,0.00000000000000 	5.56914035232263,45.11997057608678,0.00000000000000 	5.56914040123525,45.11997277164792,0.00000000000000 	5.56914046606830,45.11997586201488,0.00000000000000 	5.56914048408386,45.11997938594956,0.00000000000000 	5.56914039254398,45.11998288221387,0.00000000000000 	5.56914012871070,45.11998588956970,0.00000000000000 	5.56913913571498,45.11998856262068,0.00000000000000 	5.56913790116100,45.11998911747243,0.00000000000000 	5.56913398668422,45.11999086317014,0.00000000000000 	5.56913041501669,45.11999244471167,0.00000000000000 	5.56912640420079,45.11999420748468,0.00000000000000 	5.56912223749208,45.11999602037812,0.00000000000000 	5.56911819814615,45.11999775228099,0.00000000000000 	5.56911299755430,45.11999991147274,0.00000000000000 	5.56910915292171,45.12000128322586,0.00000000000000 	5.56910602171018,45.12000188117221,0.00000000000000 	5.56910203954322,45.12000267862609,0.00000000000000 	5.56909699241897,45.12000368866349,0.00000000000000 	5.56909126673473,45.12000482002027,0.00000000000000 	5.56908524888783,45.12000598143239,0.00000000000000 	5.56907932527569,45.12000708163583,0.00000000000000 	5.56907388229579,45.12000802936672,0.00000000000000 	5.56906930634567,45.12000873336121,0.00000000000000 	5.56906491334599,45.12000913270766,0.00000000000000 	5.56906034325503,45.12000865115170,0.00000000000000 	5.56905658471748,45.12000754581326,0.00000000000000 	5.56905341447090,45.12000677671731,0.00000000000000 	5.56904855557180,45.12000551885818,0.00000000000000 	5.56904477019561,45.12000451281583,0.00000000000000 	5.56904082235243,45.12000344564365,0.00000000000000 	5.56903694726031,45.12000237978100,0.00000000000000 	5.56903178556972,45.12000092002860,0.00000000000000 	5.56902687876209,45.11999937821393,0.00000000000000 	5.56902510597035,45.11999915267382,0.00000000000000 	5.56902140927953,45.12000009485095,0.00000000000000 	5.56901842307369,45.12000198797436,0.00000000000000 	5.56901653639398,45.12000482453848,0.00000000000000 	5.56901653639398,45.12000482453848,0.00000000000000 	5.56902190190596,45.12004434387432,0.00000000000000 	5.56902190190596,45.12004434387432,0.00000000000000 	5.56902238503095,45.12004383343518,0.00000000000000 	5.56902460144394,45.12004134293715,0.00000000000000 	5.56902622088722,45.12003875167743,0.00000000000000 	5.56902737628334,45.12003572363658,0.00000000000000 	5.56902801599377,45.12003290330804,0.00000000000000 	5.56902865111224,45.12002973732350,0.00000000000000 	5.56902982784104,45.12002668725698,0.00000000000000 	5.56903209238240,45.12002421468254,0.00000000000000 	5.56903599093857,45.12002278117407,0.00000000000000 	5.56903979799093,45.12002227160861,0.00000000000000 	5.56904373869254,45.12002186694316,0.00000000000000 	5.56904885361904,45.12002144867914,0.00000000000000 	5.56905337276543,45.12002111637338,0.00000000000000 	5.56905799267384,45.12002065342339,0.00000000000000 	5.56906014809991,45.12002034316966,0.00000000000000 	5.56906462459604,45.12001978685845,0.00000000000000 	5.56906851311064,45.12001931817340,0.00000000000000 	5.56907342214170,45.12001870609905,0.00000000000000 	5.56907770344325,45.12001802174750,0.00000000000000 	5.56908004850464,45.12001762301728,0.00000000000000 	5.56908507585953,45.12001695398367,0.00000000000000 	5.56908937994765,45.12001641575707,0.00000000000000 	5.56909406969894,45.12001584434213,0.00000000000000 	5.56909882252654,45.12001527451757,0.00000000000000 	5.56910331584359,45.12001474106210,0.00000000000000 	5.56910722706327,45.12001427875450,0.00000000000000 	5.56911201286328,45.12001370669820,0.00000000000000 	5.56911404739695,45.12001332681682,0.00000000000000 	5.56911773617625,45.12001248436759,0.00000000000000 	5.56912263123331,45.12001122395825,0.00000000000000 	5.56912828460027,45.12000959019669,0.00000000000000 	5.56913424830930,45.12000762769073,0.00000000000000 	5.56914007439264,45.12000538104840,0.00000000000000 	5.56914531488261,45.12000289487776,0.00000000000000 	5.56914952181165,45.12000021378692,0.00000000000000 	5.56915224721230,45.11999738238413,0.00000000000000 	5.56915304311725,45.11999444527754,0.00000000000000 	5.56915275130277,45.11999149242502,0.00000000000000 	5.56915251660164,45.11998860509287,0.00000000000000 	5.56915228638635,45.11998446855900,0.00000000000000 	5.56915222260175,45.11998066359551,0.00000000000000 	5.56915234800320,45.11997730069213,0.00000000000000 	5.56915268534610,45.11997449033861,0.00000000000000 	5.56915350415362,45.11997179369251,0.00000000000000 	5.56915482124378,45.11996918229656,0.00000000000000 	5.56915661597652,45.11996585441387,0.00000000000000 	5.56915821604619,45.11996330936093,0.00000000000000 	5.56916060892219,45.11996041184046,0.00000000000000 	5.56916387805651,45.11995857117638,0.00000000000000 	5.56916712218205,45.11995822750301,0.00000000000000 	5.56917109294735,45.11995767562615,0.00000000000000 	5.56917297402946,45.11995699706129,0.00000000000000 	5.56917703477638,45.11995463323237,0.00000000000000 	5.56918034645073,45.11995240747670,0.00000000000000 	5.56918396447470,45.11994985978637,0.00000000000000 	5.56918773691276,45.11994715984242,0.00000000000000 	5.56919151182947,45.11994447732580,0.00000000000000 	5.56919513728946,45.11994198191755,0.00000000000000 	5.56919846135742,45.11993984329872,0.00000000000000 	5.56920254999097,45.11993767552791,0.00000000000000 	5.56920479479740,45.11993669228555,0.00000000000000 	5.56920802161462,45.11993500050363,0.00000000000000 	5.56921100536735,45.11993306497964,0.00000000000000 	5.56921366213775,45.11993090434351,0.00000000000000 	5.56921590800803,45.11992853722512,0.00000000000000 	5.56921765906045,45.11992598225447,0.00000000000000 	5.56921883137725,45.11992325806148,0.00000000000000 	5.56921931314936,45.11992020857213,0.00000000000000 	5.56921919369733,45.11991682757515,0.00000000000000 	5.56921869003678,45.11991336098921,0.00000000000000 	5.56921801918328,45.11991005473303,0.00000000000000 	5.56921739815233,45.11990715472527,0.00000000000000 	5.56921706324221,45.11990389208060,0.00000000000000 	5.56921842599470,45.11990091011284,0.00000000000000 	5.56922040659063,45.11989772660527,0.00000000000000 	5.56922248741280,45.11989466713658,0.00000000000000 	5.56922445084761,45.11989192518068,0.00000000000000 </coordinates>
</LinearRing>
</outerBoundaryIs>
</Polygon>
<Polygon>
<outerBoundaryIs>
<LinearRing>
<coordinates>
	5.56955363580365,45.11969018577541,0.00000000000000 	5.56954630737226,45.11969141848584,0.00000000000000 	5.56953897413611,45.11969293531424,0.00000000000000 	5.56953528288207,45.11969378250310,0.00000000000000 	5.56953156302585,45.11969467939801,0.00000000000000 	5.56952780543376,45.11969561889109,0.00000000000000 	5.56952400097215,45.11969659387455,0.00000000000000 	5.56952014050736,45.11969759724055,0.00000000000000 	5.56951621490573,45.11969862188128,0.00000000000000 	5.56951221503359,45.11969966068891,0.00000000000000 	5.56950813175728,45.11970070655556,0.00000000000000 	5.56950395594316,45.11970175237346,0.00000000000000 	5.56949967845756,45.11970279103474,0.00000000000000 	5.56949529016683,45.11970381543158,0.00000000000000 	5.56949078193732,45.11970481845614,0.00000000000000 	5.56948614463537,45.11970579300058,0.00000000000000 	5.56948136912734,45.11970673195705,0.00000000000000 	5.56947644627958,45.11970762821770,0.00000000000000 	5.56947136695845,45.11970847467469,0.00000000000000 	5.56946642732822,45.11970931212505,0.00000000000000 	5.56946191293014,45.11971018246815,0.00000000000000 	5.56945779861804,45.11971108026200,0.00000000000000 	5.56945405924578,45.11971200006467,0.00000000000000 	5.56944760473618,45.11971388392869,0.00000000000000 	5.56944234823216,45.11971579052443,0.00000000000000 	5.56943808856452,45.11971767631608,0.00000000000000 	5.56943462456407,45.11971949776773,0.00000000000000 	5.56943048038167,45.11972201407285,0.00000000000000 	5.56942699487346,45.11972414072324,0.00000000000000 	5.56942470184929,45.11972526945530,0.00000000000000 	5.56942057545249,45.11972666693896,0.00000000000000 	5.56941556565738,45.11972785093473,0.00000000000000 	5.56941008574722,45.11972878623499,0.00000000000000 	5.56940454900538,45.11972943763212,0.00000000000000 	5.56939936871522,45.11972976991861,0.00000000000000 	5.56939495816016,45.11972974788705,0.00000000000000 	5.56939264951129,45.11972951896957,0.00000000000000 	5.56938791691627,45.11972913241905,0.00000000000000 	5.56938323407576,45.11972898549688,0.00000000000000 	5.56937776481080,45.11972893692608,0.00000000000000 	5.56937188266189,45.11972899504576,0.00000000000000 	5.56936596116953,45.11972916819504,0.00000000000000 	5.56936037387423,45.11972946471317,0.00000000000000 	5.56935549431647,45.11972989293945,0.00000000000000 	5.56935169603679,45.11973046121319,0.00000000000000 	5.56934884313362,45.11973159445521,0.00000000000000 	5.56934723523917,45.11973518508076,0.00000000000000 	5.56934609567366,45.11973804157887,0.00000000000000 	5.56934479840732,45.11974131911646,0.00000000000000 	5.56934339297368,45.11974480288053,0.00000000000000 	5.56934192890634,45.11974827805803,0.00000000000000 	5.56934045573889,45.11975152983592,0.00000000000000 	5.56933902300497,45.11975434340118,0.00000000000000 	5.56933705807191,45.11975727219690,0.00000000000000 	5.56933647697249,45.11975779664171,0.00000000000000 	5.56933349433838,45.11976004308737,0.00000000000000 	5.56933033055223,45.11976249023331,0.00000000000000 	5.56932653676538,45.11976543423518,0.00000000000000 	5.56932237894080,45.11976864987322,0.00000000000000 	5.56931812304156,45.11977191192771,0.00000000000000 	5.56931403503086,45.11977499517890,0.00000000000000 	5.56931038087202,45.11977767440715,0.00000000000000 	5.56930742652846,45.11977972439280,0.00000000000000 	5.56930488896185,45.11978112687351,0.00000000000000 	5.56930038897727,45.11978195033490,0.00000000000000 	5.56929644143401,45.11978270653227,0.00000000000000 	5.56929182936821,45.11978361656092,0.00000000000000 	5.56928690316348,45.11978462356100,0.00000000000000 	5.56928201320346,45.11978567067275,0.00000000000000 	5.56927750987186,45.11978670103645,0.00000000000000 	5.56927374355239,45.11978765779239,0.00000000000000 	5.56927024243548,45.11978883053141,0.00000000000000 	5.56926982348501,45.11978912304261,0.00000000000000 	5.56926882248910,45.11979239103967,0.00000000000000 	5.56926794828204,45.11979557845394,0.00000000000000 	5.56926657422720,45.11979901810592,0.00000000000000 	5.56926445925493,45.11980216367571,0.00000000000000 	5.56926136229561,45.11980446884338,0.00000000000000 	5.56925704227980,45.11980538728893,0.00000000000000 	5.56925219082775,45.11980465484363,0.00000000000000 	5.56924762997791,45.11980271668359,0.00000000000000 	5.56924331463887,45.11980009050310,0.00000000000000 	5.56923919971909,45.11979729399638,0.00000000000000 	5.56923524012686,45.11979484485767,0.00000000000000 	5.56923139077032,45.11979326078117,0.00000000000000 	5.56922886350704,45.11979294097172,0.00000000000000 	5.56922453781945,45.11979398930774,0.00000000000000 	5.56922165724930,45.11979655466882,0.00000000000000 	5.56922026215580,45.11979999919929,0.00000000000000 	5.56922021495844,45.11980277584196,0.00000000000000 	5.56922151656400,45.11980622407845,0.00000000000000 	5.56922208983653,45.11980697434536,0.00000000000000 	5.56922476543611,45.11980958933613,0.00000000000000 	5.56922759589866,45.11981180461115,0.00000000000000 	5.56923026677008,45.11981381037978,0.00000000000000 	5.56923290188317,45.11981631274435,0.00000000000000 	5.56923387192313,45.11981795423550,0.00000000000000 	5.56923470766301,45.11982128743993,0.00000000000000 	5.56923513081839,45.11982472071613,0.00000000000000 	5.56923524800525,45.11982844594913,0.00000000000000 	5.56923494095293,45.11983200586951,0.00000000000000 	5.56923409139079,45.11983494320789,0.00000000000000 	5.56923191031870,45.11983710085597,0.00000000000000 	5.56922798805891,45.11983884161300,0.00000000000000 	5.56922446129613,45.11984094317415,0.00000000000000 	5.56922071995569,45.11984330200228,0.00000000000000 	5.56921688510854,45.11984557386764,0.00000000000000 	5.56921402044120,45.11984701362161,0.00000000000000 	5.56921034345004,45.11984926759253,0.00000000000000 	5.56920717056256,45.11985165616674,0.00000000000000 	5.56920365473565,45.11985452098922,0.00000000000000 	5.56919999680529,45.11985766278008,0.00000000000000 	5.56919639760757,45.11986088225943,0.00000000000000 	5.56919305797867,45.11986398014739,0.00000000000000 	5.56919017875487,45.11986675716413,0.00000000000000 	5.56918796077251,45.11986901402986,0.00000000000000 	5.56918631295625,45.11987098812067,0.00000000000000 	5.56918459402964,45.11987374420312,0.00000000000000 	5.56918258716509,45.11987663335776,0.00000000000000 	5.56918079905679,45.11987950406974,0.00000000000000 	5.56918056961719,45.11987994715464,0.00000000000000 	5.56918056961719,45.11987994715464,0.00000000000000 	5.56922445134760,45.11989192518975,0.00000000000000 	5.56922445134760,45.11989192518975,0.00000000000000 	5.56922510478062,45.11988907900149,0.00000000000000 	5.56922656426865,45.11988659538777,0.00000000000000 	5.56922921393750,45.11988416640498,0.00000000000000 	5.56923219085210,45.11988159151462,0.00000000000000 	5.56923505992256,45.11987904050270,0.00000000000000 	5.56923742479406,45.11987684638732,0.00000000000000 	5.56923824461142,45.11987606223250,0.00000000000000 	5.56924102865908,45.11987363371243,0.00000000000000 	5.56924416394680,45.11987109160503,0.00000000000000 	5.56924726418748,45.11986837583932,0.00000000000000 	5.56924994309411,45.11986542634430,0.00000000000000 	5.56925181437976,45.11986218304906,0.00000000000000 	5.56925249175760,45.11985858588265,0.00000000000000 	5.56925208930183,45.11985596151197,0.00000000000000 	5.56925090165394,45.11985225980649,0.00000000000000 	5.56924975158446,45.11984924690464,0.00000000000000 	5.56924837246978,45.11984610213096,0.00000000000000 	5.56924708144187,45.11984318941168,0.00000000000000 	5.56924651101561,45.11984091046990,0.00000000000000 	5.56924568867573,45.11983743378252,0.00000000000000 	5.56924490744093,45.11983470476837,0.00000000000000 	5.56924403232896,45.11983161084286,0.00000000000000 	5.56924317796434,45.11982837365770,0.00000000000000 	5.56924245897155,45.11982521486456,0.00000000000000 	5.56924198997503,45.11982235611524,0.00000000000000 	5.56924200596415,45.11981911543641,0.00000000000000 	5.56924322920722,45.11981779664692,0.00000000000000 	5.56924721926575,45.11981776083250,0.00000000000000 	5.56925153328181,45.11981782394439,0.00000000000000 	5.56925637668599,45.11981789942762,0.00000000000000 	5.56926120650620,45.11981792900895,0.00000000000000 	5.56926547977034,45.11981785441528,0.00000000000000 	5.56926937323162,45.11981749218819,0.00000000000000 	5.56927328861252,45.11981683665856,0.00000000000000 	5.56927702771499,45.11981614904638,0.00000000000000 	5.56928032526153,45.11981419937835,0.00000000000000 	5.56928052107335,45.11981096886188,0.00000000000000 	5.56928005316184,45.11980809511157,0.00000000000000 	5.56927944234049,45.11980493845729,0.00000000000000 	5.56927893090489,45.11980184145238,0.00000000000000 	5.56927882237314,45.11979839696797,0.00000000000000 	5.56927917537290,45.11979719660415,0.00000000000000 	5.56928161924232,45.11979475670955,0.00000000000000 	5.56928532280945,45.11979313202452,0.00000000000000 	5.56928956577899,45.11979208431134,0.00000000000000 	5.56929097547390,45.11979182211272,0.00000000000000 	5.56929516245856,45.11979141312396,0.00000000000000 	5.56929934517122,45.11979138099445,0.00000000000000 	5.56930347277167,45.11979130113288,0.00000000000000 	5.56930482760412,45.11979119051908,0.00000000000000 	5.56930881130665,45.11979090571018,0.00000000000000 	5.56931259926324,45.11979035001234,0.00000000000000 	5.56931347410860,45.11978990998296,0.00000000000000 	5.56931754208598,45.11978761446303,0.00000000000000 	5.56932129599365,45.11978555045828,0.00000000000000 	5.56932576068445,45.11978311243145,0.00000000000000 	5.56933060928632,45.11978047798847,0.00000000000000 	5.56933551492730,45.11977782473522,0.00000000000000 	5.56934015073557,45.11977533027770,0.00000000000000 	5.56934418983941,45.11977317222195,0.00000000000000 	5.56934730536720,45.11977152817402,0.00000000000000 	5.56934917044734,45.11977057574007,0.00000000000000 	5.56935295939492,45.11976892182061,0.00000000000000 	5.56935686121418,45.11976760825669,0.00000000000000 	5.56936059408334,45.11976667331535,0.00000000000000 	5.56936496610706,45.11976589807283,0.00000000000000 	5.56936616933042,45.11976573534507,0.00000000000000 	5.56937002060834,45.11976520805484,0.00000000000000 	5.56937408952609,45.11976456176219,0.00000000000000 	5.56937818645596,45.11976379736394,0.00000000000000 	5.56938212177021,45.11976291575692,0.00000000000000 	5.56938678970220,45.11976155950637,0.00000000000000 	5.56939038371375,45.11975999860517,0.00000000000000 	5.56939374670717,45.11975844264554,0.00000000000000 	5.56939764580826,45.11975704119394,0.00000000000000 	5.56940151777555,45.11975570638882,0.00000000000000 	5.56940546151467,45.11975399775260,0.00000000000000 	5.56940692734309,45.11975288527225,0.00000000000000 	5.56940956312595,45.11975042155176,0.00000000000000 	5.56941249598327,45.11974831059140,0.00000000000000 	5.56941309763074,45.11974790340065,0.00000000000000 	5.56941547443299,45.11974562882812,0.00000000000000 	5.56941796212762,45.11974329774586,0.00000000000000 	5.56942107191757,45.11974048341924,0.00000000000000 	5.56942462072761,45.11973742031294,0.00000000000000 	5.56942842548259,45.11973434289168,0.00000000000000 	5.56943230310748,45.11973148562019,0.00000000000000 	5.56943607052733,45.11972908296325,0.00000000000000 	5.56943954466732,45.11972736938567,0.00000000000000 	5.56944254245264,45.11972657935221,0.00000000000000 	5.56944794855615,45.11972552829339,0.00000000000000 	5.56945275125605,45.11972422212534,0.00000000000000 	5.56945816510656,45.11972259458710,0.00000000000000 	5.56946389203282,45.11972078539261,0.00000000000000 	5.56946963396001,45.11971893425588,0.00000000000000 	5.56947509281344,45.11971718089094,0.00000000000000 	5.56947997051851,45.11971566501195,0.00000000000000 	5.56948396900067,45.11971452633303,0.00000000000000 	5.56948766614298,45.11971383118963,0.00000000000000 	5.56949186719514,45.11971400244705,0.00000000000000 	5.56949639773205,45.11971424557202,0.00000000000000 	5.56950141447955,45.11971454553873,0.00000000000000 	5.56950629065029,45.11971486503594,0.00000000000000 	5.56951039945688,45.11971516675250,0.00000000000000 	5.56951360085185,45.11971547689427,0.00000000000000 	5.56951780093389,45.11971545464082,0.00000000000000 	5.56952188786838,45.11971521730111,0.00000000000000 	5.56952642303715,45.11971488973217,0.00000000000000 	5.56953081167961,45.11971453555705,0.00000000000000 	5.56953540729183,45.11971413190229,0.00000000000000 	5.56953677034332,45.11971400188128,0.00000000000000 	5.56953677034332,45.11971400188128,0.00000000000000 	5.56955363580365,45.11969018577541,0.00000000000000 </coordinates>
</LinearRing>
</outerBoundaryIs>
</Polygon>
</MultiGeometry>
</Placemark>
</Folder>
</kml>
